…
# Lump levels for two features
lumping <- recipe(Sale_Price ~ ., data = ames_train_mod) %>%
  step_other(Neighborhood, threshold = 0.01, 
             other = "other") %>%
  step_other(Screen_Porch, threshold = 0.1,
             other = ">0")

# Apply this blue print --> you will learn about this at 
# the end of the chapter
apply_2_training <- prep(lumping, training = ames_train_mod) %>%
  bake(ames_train_mod)

# New distribution of Neighborhood
count(apply_2_training, Neighborhood) %>% arrange(n)
## # A tibble: 22 x 2
##    Neighborhood                                n
##    <fct>                                   <int>
##  1 Bloomington_Heights                        21
##  2 South_and_West_of_Iowa_State_University    30
##  3 Meadow_Village                             30
##  4 Clear_Creek                                31
## # … with 18 more rows
…
#### `bake`

```{r}
baked_train <- bake(prepare, new_data = ames_train)

baked_test  <- bake(prepare, new_data = ames_test)

# baked_train

# # A tibble: 2,049 × 27
#    MS_SubClass        MS_Zoning Lot_Shape Lot_Config Neighborhood Bldg_Type House_Style
#    <fct>              <fct>     <fct>     <fct>      <fct>        <fct>     <fct>      
#  1 Two_Story_PUD_194… Resident… Regular   Inside     Briardale    Twnhs     Two_Story  
#  2 Two_Story_PUD_194… Resident… Regular   Inside     Briardale    Twnhs     Two_Story  
#  3 One_Story_PUD_194… Resident… Regular   FR2        Northpark_V… Twnhs     One_Story  
#  4 One_Story_PUD_194… Resident… Regular   Inside     Sawyer_West  TwnhsE    One_Story  
#  5 One_Story_1945_an… Resident… Regular   Corner     Sawyer_West  OneFam    One_Story  
#  6 Duplex_All_Styles… Resident… Regular   Inside     Sawyer       Duplex    One_and_Ha…
#  7 One_Story_1946_an… Resident… Slightly… Inside     Sawyer       OneFam    One_Story  
#  8 One_Story_1946_an… Resident… Slightly… Corner     Sawyer       OneFam    One_Story  
#  9 Duplex_All_Styles… Resident… Slightly… Inside     North_Ames   Duplex    One_Story  
# 10 One_Story_1946_an… Resident… Regular   Inside     North_Ames   OneFam    One_Story  
# # ℹ 2,039 more rows
# # ℹ 20 more variables: Roof_Style <fct>, Exterior_1st <fct>, Exterior_2nd <fct>,
# #   Mas_Vnr_Type <fct>, Foundation <fct>, Bsmt_Exposure <fct>, BsmtFin_Type_1 <fct>,
# #   Central_Air <fct>, Electrical <fct>, Garage_Type <fct>, Garage_Finish <fct>,
# #   Paved_Drive <fct>, Fence <fct>, Sale_Type <fct>, Sale_Price <int>, PC1 <dbl>,
# #   PC2 <dbl>, PC3 <dbl>, PC4 <dbl>, PC5 <dbl>
# # ℹ Use `print(n = ...)` to see more rows
```
…
